{
  "contractName": "IERC4906",
  "abi": [
    {
      "anonymous": false,
      "inputs": [
        {
          "indexed": true,
          "internalType": "address",
          "name": "owner",
          "type": "address"
        },
        {
          "indexed": true,
          "internalType": "address",
          "name": "approved",
          "type": "address"
        },
        {
          "indexed": true,
          "internalType": "uint256",
          "name": "tokenId",
          "type": "uint256"
        }
      ],
      "name": "Approval",
      "type": "event"
    },
    {
      "anonymous": false,
      "inputs": [
        {
          "indexed": true,
          "internalType": "address",
          "name": "owner",
          "type": "address"
        },
        {
          "indexed": true,
          "internalType": "address",
          "name": "operator",
          "type": "address"
        },
        {
          "indexed": false,
          "internalType": "bool",
          "name": "approved",
          "type": "bool"
        }
      ],
      "name": "ApprovalForAll",
      "type": "event"
    },
    {
      "anonymous": false,
      "inputs": [
        {
          "indexed": false,
          "internalType": "uint256",
          "name": "_fromTokenId",
          "type": "uint256"
        },
        {
          "indexed": false,
          "internalType": "uint256",
          "name": "_toTokenId",
          "type": "uint256"
        }
      ],
      "name": "BatchMetadataUpdate",
      "type": "event"
    },
    {
      "anonymous": false,
      "inputs": [
        {
          "indexed": false,
          "internalType": "uint256",
          "name": "_tokenId",
          "type": "uint256"
        }
      ],
      "name": "MetadataUpdate",
      "type": "event"
    },
    {
      "anonymous": false,
      "inputs": [
        {
          "indexed": true,
          "internalType": "address",
          "name": "from",
          "type": "address"
        },
        {
          "indexed": true,
          "internalType": "address",
          "name": "to",
          "type": "address"
        },
        {
          "indexed": true,
          "internalType": "uint256",
          "name": "tokenId",
          "type": "uint256"
        }
      ],
      "name": "Transfer",
      "type": "event"
    },
    {
      "inputs": [
        {
          "internalType": "address",
          "name": "to",
          "type": "address"
        },
        {
          "internalType": "uint256",
          "name": "tokenId",
          "type": "uint256"
        }
      ],
      "name": "approve",
      "outputs": [],
      "stateMutability": "nonpayable",
      "type": "function"
    },
    {
      "inputs": [
        {
          "internalType": "address",
          "name": "owner",
          "type": "address"
        }
      ],
      "name": "balanceOf",
      "outputs": [
        {
          "internalType": "uint256",
          "name": "balance",
          "type": "uint256"
        }
      ],
      "stateMutability": "view",
      "type": "function"
    },
    {
      "inputs": [
        {
          "internalType": "uint256",
          "name": "tokenId",
          "type": "uint256"
        }
      ],
      "name": "getApproved",
      "outputs": [
        {
          "internalType": "address",
          "name": "operator",
          "type": "address"
        }
      ],
      "stateMutability": "view",
      "type": "function"
    },
    {
      "inputs": [
        {
          "internalType": "address",
          "name": "owner",
          "type": "address"
        },
        {
          "internalType": "address",
          "name": "operator",
          "type": "address"
        }
      ],
      "name": "isApprovedForAll",
      "outputs": [
        {
          "internalType": "bool",
          "name": "",
          "type": "bool"
        }
      ],
      "stateMutability": "view",
      "type": "function"
    },
    {
      "inputs": [
        {
          "internalType": "uint256",
          "name": "tokenId",
          "type": "uint256"
        }
      ],
      "name": "ownerOf",
      "outputs": [
        {
          "internalType": "address",
          "name": "owner",
          "type": "address"
        }
      ],
      "stateMutability": "view",
      "type": "function"
    },
    {
      "inputs": [
        {
          "internalType": "address",
          "name": "from",
          "type": "address"
        },
        {
          "internalType": "address",
          "name": "to",
          "type": "address"
        },
        {
          "internalType": "uint256",
          "name": "tokenId",
          "type": "uint256"
        }
      ],
      "name": "safeTransferFrom",
      "outputs": [],
      "stateMutability": "nonpayable",
      "type": "function"
    },
    {
      "inputs": [
        {
          "internalType": "address",
          "name": "from",
          "type": "address"
        },
        {
          "internalType": "address",
          "name": "to",
          "type": "address"
        },
        {
          "internalType": "uint256",
          "name": "tokenId",
          "type": "uint256"
        },
        {
          "internalType": "bytes",
          "name": "data",
          "type": "bytes"
        }
      ],
      "name": "safeTransferFrom",
      "outputs": [],
      "stateMutability": "nonpayable",
      "type": "function"
    },
    {
      "inputs": [
        {
          "internalType": "address",
          "name": "operator",
          "type": "address"
        },
        {
          "internalType": "bool",
          "name": "approved",
          "type": "bool"
        }
      ],
      "name": "setApprovalForAll",
      "outputs": [],
      "stateMutability": "nonpayable",
      "type": "function"
    },
    {
      "inputs": [
        {
          "internalType": "bytes4",
          "name": "interfaceId",
          "type": "bytes4"
        }
      ],
      "name": "supportsInterface",
      "outputs": [
        {
          "internalType": "bool",
          "name": "",
          "type": "bool"
        }
      ],
      "stateMutability": "view",
      "type": "function"
    },
    {
      "inputs": [
        {
          "internalType": "address",
          "name": "from",
          "type": "address"
        },
        {
          "internalType": "address",
          "name": "to",
          "type": "address"
        },
        {
          "internalType": "uint256",
          "name": "tokenId",
          "type": "uint256"
        }
      ],
      "name": "transferFrom",
      "outputs": [],
      "stateMutability": "nonpayable",
      "type": "function"
    }
  ],
  "metadata": "{\"compiler\":{\"version\":\"0.8.13+commit.abaa5c0e\"},\"language\":\"Solidity\",\"output\":{\"abi\":[{\"anonymous\":false,\"inputs\":[{\"indexed\":true,\"internalType\":\"address\",\"name\":\"owner\",\"type\":\"address\"},{\"indexed\":true,\"internalType\":\"address\",\"name\":\"approved\",\"type\":\"address\"},{\"indexed\":true,\"internalType\":\"uint256\",\"name\":\"tokenId\",\"type\":\"uint256\"}],\"name\":\"Approval\",\"type\":\"event\"},{\"anonymous\":false,\"inputs\":[{\"indexed\":true,\"internalType\":\"address\",\"name\":\"owner\",\"type\":\"address\"},{\"indexed\":true,\"internalType\":\"address\",\"name\":\"operator\",\"type\":\"address\"},{\"indexed\":false,\"internalType\":\"bool\",\"name\":\"approved\",\"type\":\"bool\"}],\"name\":\"ApprovalForAll\",\"type\":\"event\"},{\"anonymous\":false,\"inputs\":[{\"indexed\":false,\"internalType\":\"uint256\",\"name\":\"_fromTokenId\",\"type\":\"uint256\"},{\"indexed\":false,\"internalType\":\"uint256\",\"name\":\"_toTokenId\",\"type\":\"uint256\"}],\"name\":\"BatchMetadataUpdate\",\"type\":\"event\"},{\"anonymous\":false,\"inputs\":[{\"indexed\":false,\"internalType\":\"uint256\",\"name\":\"_tokenId\",\"type\":\"uint256\"}],\"name\":\"MetadataUpdate\",\"type\":\"event\"},{\"anonymous\":false,\"inputs\":[{\"indexed\":true,\"internalType\":\"address\",\"name\":\"from\",\"type\":\"address\"},{\"indexed\":true,\"internalType\":\"address\",\"name\":\"to\",\"type\":\"address\"},{\"indexed\":true,\"internalType\":\"uint256\",\"name\":\"tokenId\",\"type\":\"uint256\"}],\"name\":\"Transfer\",\"type\":\"event\"},{\"inputs\":[{\"internalType\":\"address\",\"name\":\"to\",\"type\":\"address\"},{\"internalType\":\"uint256\",\"name\":\"tokenId\",\"type\":\"uint256\"}],\"name\":\"approve\",\"outputs\":[],\"stateMutability\":\"nonpayable\",\"type\":\"function\"},{\"inputs\":[{\"internalType\":\"address\",\"name\":\"owner\",\"type\":\"address\"}],\"name\":\"balanceOf\",\"outputs\":[{\"internalType\":\"uint256\",\"name\":\"balance\",\"type\":\"uint256\"}],\"stateMutability\":\"view\",\"type\":\"function\"},{\"inputs\":[{\"internalType\":\"uint256\",\"name\":\"tokenId\",\"type\":\"uint256\"}],\"name\":\"getApproved\",\"outputs\":[{\"internalType\":\"address\",\"name\":\"operator\",\"type\":\"address\"}],\"stateMutability\":\"view\",\"type\":\"function\"},{\"inputs\":[{\"internalType\":\"address\",\"name\":\"owner\",\"type\":\"address\"},{\"internalType\":\"address\",\"name\":\"operator\",\"type\":\"address\"}],\"name\":\"isApprovedForAll\",\"outputs\":[{\"internalType\":\"bool\",\"name\":\"\",\"type\":\"bool\"}],\"stateMutability\":\"view\",\"type\":\"function\"},{\"inputs\":[{\"internalType\":\"uint256\",\"name\":\"tokenId\",\"type\":\"uint256\"}],\"name\":\"ownerOf\",\"outputs\":[{\"internalType\":\"address\",\"name\":\"owner\",\"type\":\"address\"}],\"stateMutability\":\"view\",\"type\":\"function\"},{\"inputs\":[{\"internalType\":\"address\",\"name\":\"from\",\"type\":\"address\"},{\"internalType\":\"address\",\"name\":\"to\",\"type\":\"address\"},{\"internalType\":\"uint256\",\"name\":\"tokenId\",\"type\":\"uint256\"}],\"name\":\"safeTransferFrom\",\"outputs\":[],\"stateMutability\":\"nonpayable\",\"type\":\"function\"},{\"inputs\":[{\"internalType\":\"address\",\"name\":\"from\",\"type\":\"address\"},{\"internalType\":\"address\",\"name\":\"to\",\"type\":\"address\"},{\"internalType\":\"uint256\",\"name\":\"tokenId\",\"type\":\"uint256\"},{\"internalType\":\"bytes\",\"name\":\"data\",\"type\":\"bytes\"}],\"name\":\"safeTransferFrom\",\"outputs\":[],\"stateMutability\":\"nonpayable\",\"type\":\"function\"},{\"inputs\":[{\"internalType\":\"address\",\"name\":\"operator\",\"type\":\"address\"},{\"internalType\":\"bool\",\"name\":\"approved\",\"type\":\"bool\"}],\"name\":\"setApprovalForAll\",\"outputs\":[],\"stateMutability\":\"nonpayable\",\"type\":\"function\"},{\"inputs\":[{\"internalType\":\"bytes4\",\"name\":\"interfaceId\",\"type\":\"bytes4\"}],\"name\":\"supportsInterface\",\"outputs\":[{\"internalType\":\"bool\",\"name\":\"\",\"type\":\"bool\"}],\"stateMutability\":\"view\",\"type\":\"function\"},{\"inputs\":[{\"internalType\":\"address\",\"name\":\"from\",\"type\":\"address\"},{\"internalType\":\"address\",\"name\":\"to\",\"type\":\"address\"},{\"internalType\":\"uint256\",\"name\":\"tokenId\",\"type\":\"uint256\"}],\"name\":\"transferFrom\",\"outputs\":[],\"stateMutability\":\"nonpayable\",\"type\":\"function\"}],\"devdoc\":{\"events\":{\"BatchMetadataUpdate(uint256,uint256)\":{\"details\":\"This event emits when the metadata of a range of tokens is changed. So that the third-party platforms such as NFT market could timely update the images and related attributes of the NFTs.\"},\"MetadataUpdate(uint256)\":{\"details\":\"This event emits when the metadata of a token is changed. So that the third-party platforms such as NFT market could timely update the images and related attributes of the NFT.\"}},\"kind\":\"dev\",\"methods\":{\"approve(address,uint256)\":{\"details\":\"Gives permission to `to` to transfer `tokenId` token to another account. The approval is cleared when the token is transferred. Only a single account can be approved at a time, so approving the zero address clears previous approvals. Requirements: - The caller must own the token or be an approved operator. - `tokenId` must exist. Emits an {Approval} event.\"},\"balanceOf(address)\":{\"details\":\"Returns the number of tokens in ``owner``'s account.\"},\"getApproved(uint256)\":{\"details\":\"Returns the account approved for `tokenId` token. Requirements: - `tokenId` must exist.\"},\"isApprovedForAll(address,address)\":{\"details\":\"Returns if the `operator` is allowed to manage all of the assets of `owner`. See {setApprovalForAll}\"},\"ownerOf(uint256)\":{\"details\":\"Returns the owner of the `tokenId` token. Requirements: - `tokenId` must exist.\"},\"safeTransferFrom(address,address,uint256)\":{\"details\":\"Safely transfers `tokenId` token from `from` to `to`, checking first that contract recipients are aware of the ERC721 protocol to prevent tokens from being forever locked. Requirements: - `from` cannot be the zero address. - `to` cannot be the zero address. - `tokenId` token must exist and be owned by `from`. - If the caller is not `from`, it must have been allowed to move this token by either {approve} or {setApprovalForAll}. - If `to` refers to a smart contract, it must implement {IERC721Receiver-onERC721Received}, which is called upon a safe transfer. Emits a {Transfer} event.\"},\"safeTransferFrom(address,address,uint256,bytes)\":{\"details\":\"Safely transfers `tokenId` token from `from` to `to`. Requirements: - `from` cannot be the zero address. - `to` cannot be the zero address. - `tokenId` token must exist and be owned by `from`. - If the caller is not `from`, it must be approved to move this token by either {approve} or {setApprovalForAll}. - If `to` refers to a smart contract, it must implement {IERC721Receiver-onERC721Received}, which is called upon a safe transfer. Emits a {Transfer} event.\"},\"setApprovalForAll(address,bool)\":{\"details\":\"Approve or remove `operator` as an operator for the caller. Operators can call {transferFrom} or {safeTransferFrom} for any token owned by the caller. Requirements: - The `operator` cannot be the caller. Emits an {ApprovalForAll} event.\"},\"supportsInterface(bytes4)\":{\"details\":\"Returns true if this contract implements the interface defined by `interfaceId`. See the corresponding https://eips.ethereum.org/EIPS/eip-165#how-interfaces-are-identified[EIP section] to learn more about how these ids are created. This function call must use less than 30 000 gas.\"},\"transferFrom(address,address,uint256)\":{\"details\":\"Transfers `tokenId` token from `from` to `to`. WARNING: Note that the caller is responsible to confirm that the recipient is capable of receiving ERC721 or else they may be permanently lost. Usage of {safeTransferFrom} prevents loss, though the caller must understand this adds an external call which potentially creates a reentrancy vulnerability. Requirements: - `from` cannot be the zero address. - `to` cannot be the zero address. - `tokenId` token must be owned by `from`. - If the caller is not `from`, it must be approved to move this token by either {approve} or {setApprovalForAll}. Emits a {Transfer} event.\"}},\"title\":\"EIP-721 Metadata Update Extension\",\"version\":1},\"userdoc\":{\"kind\":\"user\",\"methods\":{},\"version\":1}},\"settings\":{\"compilationTarget\":{\"@openzeppelin/contracts/interfaces/IERC4906.sol\":\"IERC4906\"},\"evmVersion\":\"london\",\"libraries\":{},\"metadata\":{\"bytecodeHash\":\"ipfs\"},\"optimizer\":{\"enabled\":false,\"runs\":200},\"remappings\":[]},\"sources\":{\"@openzeppelin/contracts/interfaces/IERC165.sol\":{\"keccak256\":\"0xd04b0f06e0666f29cf7cccc82894de541e19bb30a765b107b1e40bb7fe5f7d7a\",\"license\":\"MIT\",\"urls\":[\"bzz-raw://7b652499d098e88d8d878374616bb58434301061cae2253298b3f374044e0ddb\",\"dweb:/ipfs/QmbhAzctqo5jrSKU6idHdVyqfmzCcDbNUPvmx4GiXxfA6q\"]},\"@openzeppelin/contracts/interfaces/IERC4906.sol\":{\"keccak256\":\"0x2a9dadb806be80dd451821f1f1190eb9aa6f6edae85b185db29d60767cc0c5f4\",\"license\":\"MIT\",\"urls\":[\"bzz-raw://5c25cac8dbe5bd96320053d23c3dacdb875e629d7c53ac00892eb7aa8500bde6\",\"dweb:/ipfs/Qmaf2oqbxxdJA9DphAoH4UCb8aXEAVM8fnu6qMxHJ5ta4A\"]},\"@openzeppelin/contracts/interfaces/IERC721.sol\":{\"keccak256\":\"0xaf297d12d8d4a57fe01a70f0ef38908f208e3faedc577056d0b728fa2f3ccf0c\",\"license\":\"MIT\",\"urls\":[\"bzz-raw://fbfaf37123958822a2720a4ea29651be00edab787540b770f73d3e025d286ff8\",\"dweb:/ipfs/QmbzgWeTm8hJVUqWrNAwFjshqbYVyeGpQA8D1huzxQdmw6\"]},\"@openzeppelin/contracts/token/ERC721/IERC721.sol\":{\"keccak256\":\"0x5bce51e11f7d194b79ea59fe00c9e8de9fa2c5530124960f29a24d4c740a3266\",\"license\":\"MIT\",\"urls\":[\"bzz-raw://7e66dfde185df46104c11bc89d08fa0760737aa59a2b8546a656473d810a8ea4\",\"dweb:/ipfs/QmXvyqtXPaPss2PD7eqPoSao5Szm2n6UMoiG8TZZDjmChR\"]},\"@openzeppelin/contracts/utils/introspection/IERC165.sol\":{\"keccak256\":\"0x447a5f3ddc18419d41ff92b3773fb86471b1db25773e07f877f548918a185bf1\",\"license\":\"MIT\",\"urls\":[\"bzz-raw://be161e54f24e5c6fae81a12db1a8ae87bc5ae1b0ddc805d82a1440a68455088f\",\"dweb:/ipfs/QmP7C3CHdY9urF4dEMb9wmsp1wMxHF6nhA2yQE5SKiPAdy\"]}},\"version\":1}",
  "bytecode": "0x",
  "deployedBytecode": "0x",
  "immutableReferences": {},
  "generatedSources": [],
  "deployedGeneratedSources": [],
  "sourceMap": "",
  "deployedSourceMap": "",
  "source": "// SPDX-License-Identifier: MIT\n// OpenZeppelin Contracts (last updated v4.9.0) (interfaces/IERC4906.sol)\n\npragma solidity ^0.8.0;\n\nimport \"./IERC165.sol\";\nimport \"./IERC721.sol\";\n\n/// @title EIP-721 Metadata Update Extension\ninterface IERC4906 is IERC165, IERC721 {\n    /// @dev This event emits when the metadata of a token is changed.\n    /// So that the third-party platforms such as NFT market could\n    /// timely update the images and related attributes of the NFT.\n    event MetadataUpdate(uint256 _tokenId);\n\n    /// @dev This event emits when the metadata of a range of tokens is changed.\n    /// So that the third-party platforms such as NFT market could\n    /// timely update the images and related attributes of the NFTs.\n    event BatchMetadataUpdate(uint256 _fromTokenId, uint256 _toTokenId);\n}\n",
  "sourcePath": "@openzeppelin\\contracts\\interfaces\\IERC4906.sol",
  "ast": {
    "absolutePath": "@openzeppelin/contracts/interfaces/IERC4906.sol",
    "exportedSymbols": {
      "IERC165": [
        2001
      ],
      "IERC4906": [
        137
      ],
      "IERC721": [
        1183
      ]
    },
    "id": 138,
    "license": "MIT",
    "nodeType": "SourceUnit",
    "nodes": [
      {
        "id": 117,
        "literals": [
          "solidity",
          "^",
          "0.8",
          ".0"
        ],
        "nodeType": "PragmaDirective",
        "src": "107:23:2"
      },
      {
        "absolutePath": "@openzeppelin/contracts/interfaces/IERC165.sol",
        "file": "./IERC165.sol",
        "id": 118,
        "nameLocation": "-1:-1:-1",
        "nodeType": "ImportDirective",
        "scope": 138,
        "sourceUnit": 116,
        "src": "132:23:2",
        "symbolAliases": [],
        "unitAlias": ""
      },
      {
        "absolutePath": "@openzeppelin/contracts/interfaces/IERC721.sol",
        "file": "./IERC721.sol",
        "id": 119,
        "nameLocation": "-1:-1:-1",
        "nodeType": "ImportDirective",
        "scope": 138,
        "sourceUnit": 141,
        "src": "156:23:2",
        "symbolAliases": [],
        "unitAlias": ""
      },
      {
        "abstract": false,
        "baseContracts": [
          {
            "baseName": {
              "id": 121,
              "name": "IERC165",
              "nodeType": "IdentifierPath",
              "referencedDeclaration": 2001,
              "src": "248:7:2"
            },
            "id": 122,
            "nodeType": "InheritanceSpecifier",
            "src": "248:7:2"
          },
          {
            "baseName": {
              "id": 123,
              "name": "IERC721",
              "nodeType": "IdentifierPath",
              "referencedDeclaration": 1183,
              "src": "257:7:2"
            },
            "id": 124,
            "nodeType": "InheritanceSpecifier",
            "src": "257:7:2"
          }
        ],
        "canonicalName": "IERC4906",
        "contractDependencies": [],
        "contractKind": "interface",
        "documentation": {
          "id": 120,
          "nodeType": "StructuredDocumentation",
          "src": "181:45:2",
          "text": "@title EIP-721 Metadata Update Extension"
        },
        "fullyImplemented": false,
        "id": 137,
        "linearizedBaseContracts": [
          137,
          1183,
          2001
        ],
        "name": "IERC4906",
        "nameLocation": "236:8:2",
        "nodeType": "ContractDefinition",
        "nodes": [
          {
            "anonymous": false,
            "documentation": {
              "id": 125,
              "nodeType": "StructuredDocumentation",
              "src": "271:201:2",
              "text": "@dev This event emits when the metadata of a token is changed.\n So that the third-party platforms such as NFT market could\n timely update the images and related attributes of the NFT."
            },
            "eventSelector": "f8e1a15aba9398e019f0b49df1a4fde98ee17ae345cb5f6b5e2c27f5033e8ce7",
            "id": 129,
            "name": "MetadataUpdate",
            "nameLocation": "483:14:2",
            "nodeType": "EventDefinition",
            "parameters": {
              "id": 128,
              "nodeType": "ParameterList",
              "parameters": [
                {
                  "constant": false,
                  "id": 127,
                  "indexed": false,
                  "mutability": "mutable",
                  "name": "_tokenId",
                  "nameLocation": "506:8:2",
                  "nodeType": "VariableDeclaration",
                  "scope": 129,
                  "src": "498:16:2",
                  "stateVariable": false,
                  "storageLocation": "default",
                  "typeDescriptions": {
                    "typeIdentifier": "t_uint256",
                    "typeString": "uint256"
                  },
                  "typeName": {
                    "id": 126,
                    "name": "uint256",
                    "nodeType": "ElementaryTypeName",
                    "src": "498:7:2",
                    "typeDescriptions": {
                      "typeIdentifier": "t_uint256",
                      "typeString": "uint256"
                    }
                  },
                  "visibility": "internal"
                }
              ],
              "src": "497:18:2"
            },
            "src": "477:39:2"
          },
          {
            "anonymous": false,
            "documentation": {
              "id": 130,
              "nodeType": "StructuredDocumentation",
              "src": "522:212:2",
              "text": "@dev This event emits when the metadata of a range of tokens is changed.\n So that the third-party platforms such as NFT market could\n timely update the images and related attributes of the NFTs."
            },
            "eventSelector": "6bd5c950a8d8df17f772f5af37cb3655737899cbf903264b9795592da439661c",
            "id": 136,
            "name": "BatchMetadataUpdate",
            "nameLocation": "745:19:2",
            "nodeType": "EventDefinition",
            "parameters": {
              "id": 135,
              "nodeType": "ParameterList",
              "parameters": [
                {
                  "constant": false,
                  "id": 132,
                  "indexed": false,
                  "mutability": "mutable",
                  "name": "_fromTokenId",
                  "nameLocation": "773:12:2",
                  "nodeType": "VariableDeclaration",
                  "scope": 136,
                  "src": "765:20:2",
                  "stateVariable": false,
                  "storageLocation": "default",
                  "typeDescriptions": {
                    "typeIdentifier": "t_uint256",
                    "typeString": "uint256"
                  },
                  "typeName": {
                    "id": 131,
                    "name": "uint256",
                    "nodeType": "ElementaryTypeName",
                    "src": "765:7:2",
                    "typeDescriptions": {
                      "typeIdentifier": "t_uint256",
                      "typeString": "uint256"
                    }
                  },
                  "visibility": "internal"
                },
                {
                  "constant": false,
                  "id": 134,
                  "indexed": false,
                  "mutability": "mutable",
                  "name": "_toTokenId",
                  "nameLocation": "795:10:2",
                  "nodeType": "VariableDeclaration",
                  "scope": 136,
                  "src": "787:18:2",
                  "stateVariable": false,
                  "storageLocation": "default",
                  "typeDescriptions": {
                    "typeIdentifier": "t_uint256",
                    "typeString": "uint256"
                  },
                  "typeName": {
                    "id": 133,
                    "name": "uint256",
                    "nodeType": "ElementaryTypeName",
                    "src": "787:7:2",
                    "typeDescriptions": {
                      "typeIdentifier": "t_uint256",
                      "typeString": "uint256"
                    }
                  },
                  "visibility": "internal"
                }
              ],
              "src": "764:42:2"
            },
            "src": "739:68:2"
          }
        ],
        "scope": 138,
        "src": "226:583:2",
        "usedErrors": []
      }
    ],
    "src": "107:703:2"
  },
  "compiler": {
    "name": "solc",
    "version": "0.8.13+commit.abaa5c0e.Emscripten.clang"
  },
  "networks": {},
  "schemaVersion": "3.4.16",
  "updatedAt": "2024-02-28T16:20:53.309Z",
  "devdoc": {
    "events": {
      "BatchMetadataUpdate(uint256,uint256)": {
        "details": "This event emits when the metadata of a range of tokens is changed. So that the third-party platforms such as NFT market could timely update the images and related attributes of the NFTs."
      },
      "MetadataUpdate(uint256)": {
        "details": "This event emits when the metadata of a token is changed. So that the third-party platforms such as NFT market could timely update the images and related attributes of the NFT."
      }
    },
    "kind": "dev",
    "methods": {
      "approve(address,uint256)": {
        "details": "Gives permission to `to` to transfer `tokenId` token to another account. The approval is cleared when the token is transferred. Only a single account can be approved at a time, so approving the zero address clears previous approvals. Requirements: - The caller must own the token or be an approved operator. - `tokenId` must exist. Emits an {Approval} event."
      },
      "balanceOf(address)": {
        "details": "Returns the number of tokens in ``owner``'s account."
      },
      "getApproved(uint256)": {
        "details": "Returns the account approved for `tokenId` token. Requirements: - `tokenId` must exist."
      },
      "isApprovedForAll(address,address)": {
        "details": "Returns if the `operator` is allowed to manage all of the assets of `owner`. See {setApprovalForAll}"
      },
      "ownerOf(uint256)": {
        "details": "Returns the owner of the `tokenId` token. Requirements: - `tokenId` must exist."
      },
      "safeTransferFrom(address,address,uint256)": {
        "details": "Safely transfers `tokenId` token from `from` to `to`, checking first that contract recipients are aware of the ERC721 protocol to prevent tokens from being forever locked. Requirements: - `from` cannot be the zero address. - `to` cannot be the zero address. - `tokenId` token must exist and be owned by `from`. - If the caller is not `from`, it must have been allowed to move this token by either {approve} or {setApprovalForAll}. - If `to` refers to a smart contract, it must implement {IERC721Receiver-onERC721Received}, which is called upon a safe transfer. Emits a {Transfer} event."
      },
      "safeTransferFrom(address,address,uint256,bytes)": {
        "details": "Safely transfers `tokenId` token from `from` to `to`. Requirements: - `from` cannot be the zero address. - `to` cannot be the zero address. - `tokenId` token must exist and be owned by `from`. - If the caller is not `from`, it must be approved to move this token by either {approve} or {setApprovalForAll}. - If `to` refers to a smart contract, it must implement {IERC721Receiver-onERC721Received}, which is called upon a safe transfer. Emits a {Transfer} event."
      },
      "setApprovalForAll(address,bool)": {
        "details": "Approve or remove `operator` as an operator for the caller. Operators can call {transferFrom} or {safeTransferFrom} for any token owned by the caller. Requirements: - The `operator` cannot be the caller. Emits an {ApprovalForAll} event."
      },
      "supportsInterface(bytes4)": {
        "details": "Returns true if this contract implements the interface defined by `interfaceId`. See the corresponding https://eips.ethereum.org/EIPS/eip-165#how-interfaces-are-identified[EIP section] to learn more about how these ids are created. This function call must use less than 30 000 gas."
      },
      "transferFrom(address,address,uint256)": {
        "details": "Transfers `tokenId` token from `from` to `to`. WARNING: Note that the caller is responsible to confirm that the recipient is capable of receiving ERC721 or else they may be permanently lost. Usage of {safeTransferFrom} prevents loss, though the caller must understand this adds an external call which potentially creates a reentrancy vulnerability. Requirements: - `from` cannot be the zero address. - `to` cannot be the zero address. - `tokenId` token must be owned by `from`. - If the caller is not `from`, it must be approved to move this token by either {approve} or {setApprovalForAll}. Emits a {Transfer} event."
      }
    },
    "title": "EIP-721 Metadata Update Extension",
    "version": 1
  },
  "userdoc": {
    "kind": "user",
    "methods": {},
    "version": 1
  }
}