{
  "contractName": "IERC721",
  "abi": [
    {
      "anonymous": false,
      "inputs": [
        {
          "indexed": true,
          "internalType": "address",
          "name": "owner",
          "type": "address"
        },
        {
          "indexed": true,
          "internalType": "address",
          "name": "approved",
          "type": "address"
        },
        {
          "indexed": true,
          "internalType": "uint256",
          "name": "tokenId",
          "type": "uint256"
        }
      ],
      "name": "Approval",
      "type": "event"
    },
    {
      "anonymous": false,
      "inputs": [
        {
          "indexed": true,
          "internalType": "address",
          "name": "owner",
          "type": "address"
        },
        {
          "indexed": true,
          "internalType": "address",
          "name": "operator",
          "type": "address"
        },
        {
          "indexed": false,
          "internalType": "bool",
          "name": "approved",
          "type": "bool"
        }
      ],
      "name": "ApprovalForAll",
      "type": "event"
    },
    {
      "anonymous": false,
      "inputs": [
        {
          "indexed": true,
          "internalType": "address",
          "name": "from",
          "type": "address"
        },
        {
          "indexed": true,
          "internalType": "address",
          "name": "to",
          "type": "address"
        },
        {
          "indexed": true,
          "internalType": "uint256",
          "name": "tokenId",
          "type": "uint256"
        }
      ],
      "name": "Transfer",
      "type": "event"
    },
    {
      "inputs": [
        {
          "internalType": "bytes4",
          "name": "interfaceId",
          "type": "bytes4"
        }
      ],
      "name": "supportsInterface",
      "outputs": [
        {
          "internalType": "bool",
          "name": "",
          "type": "bool"
        }
      ],
      "stateMutability": "view",
      "type": "function"
    },
    {
      "inputs": [
        {
          "internalType": "address",
          "name": "owner",
          "type": "address"
        }
      ],
      "name": "balanceOf",
      "outputs": [
        {
          "internalType": "uint256",
          "name": "balance",
          "type": "uint256"
        }
      ],
      "stateMutability": "view",
      "type": "function"
    },
    {
      "inputs": [
        {
          "internalType": "uint256",
          "name": "tokenId",
          "type": "uint256"
        }
      ],
      "name": "ownerOf",
      "outputs": [
        {
          "internalType": "address",
          "name": "owner",
          "type": "address"
        }
      ],
      "stateMutability": "view",
      "type": "function"
    },
    {
      "inputs": [
        {
          "internalType": "address",
          "name": "from",
          "type": "address"
        },
        {
          "internalType": "address",
          "name": "to",
          "type": "address"
        },
        {
          "internalType": "uint256",
          "name": "tokenId",
          "type": "uint256"
        }
      ],
      "name": "safeTransferFrom",
      "outputs": [],
      "stateMutability": "nonpayable",
      "type": "function"
    },
    {
      "inputs": [
        {
          "internalType": "address",
          "name": "from",
          "type": "address"
        },
        {
          "internalType": "address",
          "name": "to",
          "type": "address"
        },
        {
          "internalType": "uint256",
          "name": "tokenId",
          "type": "uint256"
        },
        {
          "internalType": "bytes",
          "name": "data",
          "type": "bytes"
        }
      ],
      "name": "safeTransferFrom",
      "outputs": [],
      "stateMutability": "nonpayable",
      "type": "function"
    },
    {
      "inputs": [
        {
          "internalType": "address",
          "name": "from",
          "type": "address"
        },
        {
          "internalType": "address",
          "name": "to",
          "type": "address"
        },
        {
          "internalType": "uint256",
          "name": "tokenId",
          "type": "uint256"
        }
      ],
      "name": "transferFrom",
      "outputs": [],
      "stateMutability": "nonpayable",
      "type": "function"
    },
    {
      "inputs": [
        {
          "internalType": "address",
          "name": "to",
          "type": "address"
        },
        {
          "internalType": "uint256",
          "name": "tokenId",
          "type": "uint256"
        }
      ],
      "name": "approve",
      "outputs": [],
      "stateMutability": "nonpayable",
      "type": "function"
    },
    {
      "inputs": [
        {
          "internalType": "address",
          "name": "operator",
          "type": "address"
        },
        {
          "internalType": "bool",
          "name": "approved",
          "type": "bool"
        }
      ],
      "name": "setApprovalForAll",
      "outputs": [],
      "stateMutability": "nonpayable",
      "type": "function"
    },
    {
      "inputs": [
        {
          "internalType": "uint256",
          "name": "tokenId",
          "type": "uint256"
        }
      ],
      "name": "getApproved",
      "outputs": [
        {
          "internalType": "address",
          "name": "operator",
          "type": "address"
        }
      ],
      "stateMutability": "view",
      "type": "function"
    },
    {
      "inputs": [
        {
          "internalType": "address",
          "name": "owner",
          "type": "address"
        },
        {
          "internalType": "address",
          "name": "operator",
          "type": "address"
        }
      ],
      "name": "isApprovedForAll",
      "outputs": [
        {
          "internalType": "bool",
          "name": "",
          "type": "bool"
        }
      ],
      "stateMutability": "view",
      "type": "function"
    }
  ],
  "metadata": "{\"compiler\":{\"version\":\"0.8.13+commit.abaa5c0e\"},\"language\":\"Solidity\",\"output\":{\"abi\":[{\"anonymous\":false,\"inputs\":[{\"indexed\":true,\"internalType\":\"address\",\"name\":\"owner\",\"type\":\"address\"},{\"indexed\":true,\"internalType\":\"address\",\"name\":\"approved\",\"type\":\"address\"},{\"indexed\":true,\"internalType\":\"uint256\",\"name\":\"tokenId\",\"type\":\"uint256\"}],\"name\":\"Approval\",\"type\":\"event\"},{\"anonymous\":false,\"inputs\":[{\"indexed\":true,\"internalType\":\"address\",\"name\":\"owner\",\"type\":\"address\"},{\"indexed\":true,\"internalType\":\"address\",\"name\":\"operator\",\"type\":\"address\"},{\"indexed\":false,\"internalType\":\"bool\",\"name\":\"approved\",\"type\":\"bool\"}],\"name\":\"ApprovalForAll\",\"type\":\"event\"},{\"anonymous\":false,\"inputs\":[{\"indexed\":true,\"internalType\":\"address\",\"name\":\"from\",\"type\":\"address\"},{\"indexed\":true,\"internalType\":\"address\",\"name\":\"to\",\"type\":\"address\"},{\"indexed\":true,\"internalType\":\"uint256\",\"name\":\"tokenId\",\"type\":\"uint256\"}],\"name\":\"Transfer\",\"type\":\"event\"},{\"inputs\":[{\"internalType\":\"address\",\"name\":\"to\",\"type\":\"address\"},{\"internalType\":\"uint256\",\"name\":\"tokenId\",\"type\":\"uint256\"}],\"name\":\"approve\",\"outputs\":[],\"stateMutability\":\"nonpayable\",\"type\":\"function\"},{\"inputs\":[{\"internalType\":\"address\",\"name\":\"owner\",\"type\":\"address\"}],\"name\":\"balanceOf\",\"outputs\":[{\"internalType\":\"uint256\",\"name\":\"balance\",\"type\":\"uint256\"}],\"stateMutability\":\"view\",\"type\":\"function\"},{\"inputs\":[{\"internalType\":\"uint256\",\"name\":\"tokenId\",\"type\":\"uint256\"}],\"name\":\"getApproved\",\"outputs\":[{\"internalType\":\"address\",\"name\":\"operator\",\"type\":\"address\"}],\"stateMutability\":\"view\",\"type\":\"function\"},{\"inputs\":[{\"internalType\":\"address\",\"name\":\"owner\",\"type\":\"address\"},{\"internalType\":\"address\",\"name\":\"operator\",\"type\":\"address\"}],\"name\":\"isApprovedForAll\",\"outputs\":[{\"internalType\":\"bool\",\"name\":\"\",\"type\":\"bool\"}],\"stateMutability\":\"view\",\"type\":\"function\"},{\"inputs\":[{\"internalType\":\"uint256\",\"name\":\"tokenId\",\"type\":\"uint256\"}],\"name\":\"ownerOf\",\"outputs\":[{\"internalType\":\"address\",\"name\":\"owner\",\"type\":\"address\"}],\"stateMutability\":\"view\",\"type\":\"function\"},{\"inputs\":[{\"internalType\":\"address\",\"name\":\"from\",\"type\":\"address\"},{\"internalType\":\"address\",\"name\":\"to\",\"type\":\"address\"},{\"internalType\":\"uint256\",\"name\":\"tokenId\",\"type\":\"uint256\"}],\"name\":\"safeTransferFrom\",\"outputs\":[],\"stateMutability\":\"nonpayable\",\"type\":\"function\"},{\"inputs\":[{\"internalType\":\"address\",\"name\":\"from\",\"type\":\"address\"},{\"internalType\":\"address\",\"name\":\"to\",\"type\":\"address\"},{\"internalType\":\"uint256\",\"name\":\"tokenId\",\"type\":\"uint256\"},{\"internalType\":\"bytes\",\"name\":\"data\",\"type\":\"bytes\"}],\"name\":\"safeTransferFrom\",\"outputs\":[],\"stateMutability\":\"nonpayable\",\"type\":\"function\"},{\"inputs\":[{\"internalType\":\"address\",\"name\":\"operator\",\"type\":\"address\"},{\"internalType\":\"bool\",\"name\":\"approved\",\"type\":\"bool\"}],\"name\":\"setApprovalForAll\",\"outputs\":[],\"stateMutability\":\"nonpayable\",\"type\":\"function\"},{\"inputs\":[{\"internalType\":\"bytes4\",\"name\":\"interfaceId\",\"type\":\"bytes4\"}],\"name\":\"supportsInterface\",\"outputs\":[{\"internalType\":\"bool\",\"name\":\"\",\"type\":\"bool\"}],\"stateMutability\":\"view\",\"type\":\"function\"},{\"inputs\":[{\"internalType\":\"address\",\"name\":\"from\",\"type\":\"address\"},{\"internalType\":\"address\",\"name\":\"to\",\"type\":\"address\"},{\"internalType\":\"uint256\",\"name\":\"tokenId\",\"type\":\"uint256\"}],\"name\":\"transferFrom\",\"outputs\":[],\"stateMutability\":\"nonpayable\",\"type\":\"function\"}],\"devdoc\":{\"details\":\"Required interface of an ERC721 compliant contract.\",\"events\":{\"Approval(address,address,uint256)\":{\"details\":\"Emitted when `owner` enables `approved` to manage the `tokenId` token.\"},\"ApprovalForAll(address,address,bool)\":{\"details\":\"Emitted when `owner` enables or disables (`approved`) `operator` to manage all of its assets.\"},\"Transfer(address,address,uint256)\":{\"details\":\"Emitted when `tokenId` token is transferred from `from` to `to`.\"}},\"kind\":\"dev\",\"methods\":{\"approve(address,uint256)\":{\"details\":\"Gives permission to `to` to transfer `tokenId` token to another account. The approval is cleared when the token is transferred. Only a single account can be approved at a time, so approving the zero address clears previous approvals. Requirements: - The caller must own the token or be an approved operator. - `tokenId` must exist. Emits an {Approval} event.\"},\"balanceOf(address)\":{\"details\":\"Returns the number of tokens in ``owner``'s account.\"},\"getApproved(uint256)\":{\"details\":\"Returns the account approved for `tokenId` token. Requirements: - `tokenId` must exist.\"},\"isApprovedForAll(address,address)\":{\"details\":\"Returns if the `operator` is allowed to manage all of the assets of `owner`. See {setApprovalForAll}\"},\"ownerOf(uint256)\":{\"details\":\"Returns the owner of the `tokenId` token. Requirements: - `tokenId` must exist.\"},\"safeTransferFrom(address,address,uint256)\":{\"details\":\"Safely transfers `tokenId` token from `from` to `to`, checking first that contract recipients are aware of the ERC721 protocol to prevent tokens from being forever locked. Requirements: - `from` cannot be the zero address. - `to` cannot be the zero address. - `tokenId` token must exist and be owned by `from`. - If the caller is not `from`, it must have been allowed to move this token by either {approve} or {setApprovalForAll}. - If `to` refers to a smart contract, it must implement {IERC721Receiver-onERC721Received}, which is called upon a safe transfer. Emits a {Transfer} event.\"},\"safeTransferFrom(address,address,uint256,bytes)\":{\"details\":\"Safely transfers `tokenId` token from `from` to `to`. Requirements: - `from` cannot be the zero address. - `to` cannot be the zero address. - `tokenId` token must exist and be owned by `from`. - If the caller is not `from`, it must be approved to move this token by either {approve} or {setApprovalForAll}. - If `to` refers to a smart contract, it must implement {IERC721Receiver-onERC721Received}, which is called upon a safe transfer. Emits a {Transfer} event.\"},\"setApprovalForAll(address,bool)\":{\"details\":\"Approve or remove `operator` as an operator for the caller. Operators can call {transferFrom} or {safeTransferFrom} for any token owned by the caller. Requirements: - The `operator` cannot be the caller. Emits an {ApprovalForAll} event.\"},\"supportsInterface(bytes4)\":{\"details\":\"Returns true if this contract implements the interface defined by `interfaceId`. See the corresponding https://eips.ethereum.org/EIPS/eip-165#how-interfaces-are-identified[EIP section] to learn more about how these ids are created. This function call must use less than 30 000 gas.\"},\"transferFrom(address,address,uint256)\":{\"details\":\"Transfers `tokenId` token from `from` to `to`. WARNING: Note that the caller is responsible to confirm that the recipient is capable of receiving ERC721 or else they may be permanently lost. Usage of {safeTransferFrom} prevents loss, though the caller must understand this adds an external call which potentially creates a reentrancy vulnerability. Requirements: - `from` cannot be the zero address. - `to` cannot be the zero address. - `tokenId` token must be owned by `from`. - If the caller is not `from`, it must be approved to move this token by either {approve} or {setApprovalForAll}. Emits a {Transfer} event.\"}},\"version\":1},\"userdoc\":{\"kind\":\"user\",\"methods\":{},\"version\":1}},\"settings\":{\"compilationTarget\":{\"@openzeppelin/contracts/token/ERC721/IERC721.sol\":\"IERC721\"},\"evmVersion\":\"london\",\"libraries\":{},\"metadata\":{\"bytecodeHash\":\"ipfs\"},\"optimizer\":{\"enabled\":false,\"runs\":200},\"remappings\":[]},\"sources\":{\"@openzeppelin/contracts/token/ERC721/IERC721.sol\":{\"keccak256\":\"0x5bce51e11f7d194b79ea59fe00c9e8de9fa2c5530124960f29a24d4c740a3266\",\"license\":\"MIT\",\"urls\":[\"bzz-raw://7e66dfde185df46104c11bc89d08fa0760737aa59a2b8546a656473d810a8ea4\",\"dweb:/ipfs/QmXvyqtXPaPss2PD7eqPoSao5Szm2n6UMoiG8TZZDjmChR\"]},\"@openzeppelin/contracts/utils/introspection/IERC165.sol\":{\"keccak256\":\"0x447a5f3ddc18419d41ff92b3773fb86471b1db25773e07f877f548918a185bf1\",\"license\":\"MIT\",\"urls\":[\"bzz-raw://be161e54f24e5c6fae81a12db1a8ae87bc5ae1b0ddc805d82a1440a68455088f\",\"dweb:/ipfs/QmP7C3CHdY9urF4dEMb9wmsp1wMxHF6nhA2yQE5SKiPAdy\"]}},\"version\":1}",
  "bytecode": "0x",
  "deployedBytecode": "0x",
  "immutableReferences": {},
  "generatedSources": [],
  "deployedGeneratedSources": [],
  "sourceMap": "",
  "deployedSourceMap": "",
  "source": "// SPDX-License-Identifier: MIT\n// OpenZeppelin Contracts (last updated v4.9.0) (token/ERC721/IERC721.sol)\n\npragma solidity ^0.8.0;\n\nimport \"../../utils/introspection/IERC165.sol\";\n\n/**\n * @dev Required interface of an ERC721 compliant contract.\n */\ninterface IERC721 is IERC165 {\n    /**\n     * @dev Emitted when `tokenId` token is transferred from `from` to `to`.\n     */\n    event Transfer(address indexed from, address indexed to, uint256 indexed tokenId);\n\n    /**\n     * @dev Emitted when `owner` enables `approved` to manage the `tokenId` token.\n     */\n    event Approval(address indexed owner, address indexed approved, uint256 indexed tokenId);\n\n    /**\n     * @dev Emitted when `owner` enables or disables (`approved`) `operator` to manage all of its assets.\n     */\n    event ApprovalForAll(address indexed owner, address indexed operator, bool approved);\n\n    /**\n     * @dev Returns the number of tokens in ``owner``'s account.\n     */\n    function balanceOf(address owner) external view returns (uint256 balance);\n\n    /**\n     * @dev Returns the owner of the `tokenId` token.\n     *\n     * Requirements:\n     *\n     * - `tokenId` must exist.\n     */\n    function ownerOf(uint256 tokenId) external view returns (address owner);\n\n    /**\n     * @dev Safely transfers `tokenId` token from `from` to `to`.\n     *\n     * Requirements:\n     *\n     * - `from` cannot be the zero address.\n     * - `to` cannot be the zero address.\n     * - `tokenId` token must exist and be owned by `from`.\n     * - If the caller is not `from`, it must be approved to move this token by either {approve} or {setApprovalForAll}.\n     * - If `to` refers to a smart contract, it must implement {IERC721Receiver-onERC721Received}, which is called upon a safe transfer.\n     *\n     * Emits a {Transfer} event.\n     */\n    function safeTransferFrom(address from, address to, uint256 tokenId, bytes calldata data) external;\n\n    /**\n     * @dev Safely transfers `tokenId` token from `from` to `to`, checking first that contract recipients\n     * are aware of the ERC721 protocol to prevent tokens from being forever locked.\n     *\n     * Requirements:\n     *\n     * - `from` cannot be the zero address.\n     * - `to` cannot be the zero address.\n     * - `tokenId` token must exist and be owned by `from`.\n     * - If the caller is not `from`, it must have been allowed to move this token by either {approve} or {setApprovalForAll}.\n     * - If `to` refers to a smart contract, it must implement {IERC721Receiver-onERC721Received}, which is called upon a safe transfer.\n     *\n     * Emits a {Transfer} event.\n     */\n    function safeTransferFrom(address from, address to, uint256 tokenId) external;\n\n    /**\n     * @dev Transfers `tokenId` token from `from` to `to`.\n     *\n     * WARNING: Note that the caller is responsible to confirm that the recipient is capable of receiving ERC721\n     * or else they may be permanently lost. Usage of {safeTransferFrom} prevents loss, though the caller must\n     * understand this adds an external call which potentially creates a reentrancy vulnerability.\n     *\n     * Requirements:\n     *\n     * - `from` cannot be the zero address.\n     * - `to` cannot be the zero address.\n     * - `tokenId` token must be owned by `from`.\n     * - If the caller is not `from`, it must be approved to move this token by either {approve} or {setApprovalForAll}.\n     *\n     * Emits a {Transfer} event.\n     */\n    function transferFrom(address from, address to, uint256 tokenId) external;\n\n    /**\n     * @dev Gives permission to `to` to transfer `tokenId` token to another account.\n     * The approval is cleared when the token is transferred.\n     *\n     * Only a single account can be approved at a time, so approving the zero address clears previous approvals.\n     *\n     * Requirements:\n     *\n     * - The caller must own the token or be an approved operator.\n     * - `tokenId` must exist.\n     *\n     * Emits an {Approval} event.\n     */\n    function approve(address to, uint256 tokenId) external;\n\n    /**\n     * @dev Approve or remove `operator` as an operator for the caller.\n     * Operators can call {transferFrom} or {safeTransferFrom} for any token owned by the caller.\n     *\n     * Requirements:\n     *\n     * - The `operator` cannot be the caller.\n     *\n     * Emits an {ApprovalForAll} event.\n     */\n    function setApprovalForAll(address operator, bool approved) external;\n\n    /**\n     * @dev Returns the account approved for `tokenId` token.\n     *\n     * Requirements:\n     *\n     * - `tokenId` must exist.\n     */\n    function getApproved(uint256 tokenId) external view returns (address operator);\n\n    /**\n     * @dev Returns if the `operator` is allowed to manage all of the assets of `owner`.\n     *\n     * See {setApprovalForAll}\n     */\n    function isApprovedForAll(address owner, address operator) external view returns (bool);\n}\n",
  "sourcePath": "@openzeppelin\\contracts\\token\\ERC721\\IERC721.sol",
  "ast": {
    "absolutePath": "@openzeppelin/contracts/token/ERC721/IERC721.sol",
    "exportedSymbols": {
      "IERC165": [
        2001
      ],
      "IERC721": [
        1183
      ]
    },
    "id": 1184,
    "license": "MIT",
    "nodeType": "SourceUnit",
    "nodes": [
      {
        "id": 1069,
        "literals": [
          "solidity",
          "^",
          "0.8",
          ".0"
        ],
        "nodeType": "PragmaDirective",
        "src": "108:23:5"
      },
      {
        "absolutePath": "@openzeppelin/contracts/utils/introspection/IERC165.sol",
        "file": "../../utils/introspection/IERC165.sol",
        "id": 1070,
        "nameLocation": "-1:-1:-1",
        "nodeType": "ImportDirective",
        "scope": 1184,
        "sourceUnit": 2002,
        "src": "133:47:5",
        "symbolAliases": [],
        "unitAlias": ""
      },
      {
        "abstract": false,
        "baseContracts": [
          {
            "baseName": {
              "id": 1072,
              "name": "IERC165",
              "nodeType": "IdentifierPath",
              "referencedDeclaration": 2001,
              "src": "271:7:5"
            },
            "id": 1073,
            "nodeType": "InheritanceSpecifier",
            "src": "271:7:5"
          }
        ],
        "canonicalName": "IERC721",
        "contractDependencies": [],
        "contractKind": "interface",
        "documentation": {
          "id": 1071,
          "nodeType": "StructuredDocumentation",
          "src": "182:67:5",
          "text": " @dev Required interface of an ERC721 compliant contract."
        },
        "fullyImplemented": false,
        "id": 1183,
        "linearizedBaseContracts": [
          1183,
          2001
        ],
        "name": "IERC721",
        "nameLocation": "260:7:5",
        "nodeType": "ContractDefinition",
        "nodes": [
          {
            "anonymous": false,
            "documentation": {
              "id": 1074,
              "nodeType": "StructuredDocumentation",
              "src": "285:88:5",
              "text": " @dev Emitted when `tokenId` token is transferred from `from` to `to`."
            },
            "eventSelector": "ddf252ad1be2c89b69c2b068fc378daa952ba7f163c4a11628f55a4df523b3ef",
            "id": 1082,
            "name": "Transfer",
            "nameLocation": "384:8:5",
            "nodeType": "EventDefinition",
            "parameters": {
              "id": 1081,
              "nodeType": "ParameterList",
              "parameters": [
                {
                  "constant": false,
                  "id": 1076,
                  "indexed": true,
                  "mutability": "mutable",
                  "name": "from",
                  "nameLocation": "409:4:5",
                  "nodeType": "VariableDeclaration",
                  "scope": 1082,
                  "src": "393:20:5",
                  "stateVariable": false,
                  "storageLocation": "default",
                  "typeDescriptions": {
                    "typeIdentifier": "t_address",
                    "typeString": "address"
                  },
                  "typeName": {
                    "id": 1075,
                    "name": "address",
                    "nodeType": "ElementaryTypeName",
                    "src": "393:7:5",
                    "stateMutability": "nonpayable",
                    "typeDescriptions": {
                      "typeIdentifier": "t_address",
                      "typeString": "address"
                    }
                  },
                  "visibility": "internal"
                },
                {
                  "constant": false,
                  "id": 1078,
                  "indexed": true,
                  "mutability": "mutable",
                  "name": "to",
                  "nameLocation": "431:2:5",
                  "nodeType": "VariableDeclaration",
                  "scope": 1082,
                  "src": "415:18:5",
                  "stateVariable": false,
                  "storageLocation": "default",
                  "typeDescriptions": {
                    "typeIdentifier": "t_address",
                    "typeString": "address"
                  },
                  "typeName": {
                    "id": 1077,
                    "name": "address",
                    "nodeType": "ElementaryTypeName",
                    "src": "415:7:5",
                    "stateMutability": "nonpayable",
                    "typeDescriptions": {
                      "typeIdentifier": "t_address",
                      "typeString": "address"
                    }
                  },
                  "visibility": "internal"
                },
                {
                  "constant": false,
                  "id": 1080,
                  "indexed": true,
                  "mutability": "mutable",
                  "name": "tokenId",
                  "nameLocation": "451:7:5",
                  "nodeType": "VariableDeclaration",
                  "scope": 1082,
                  "src": "435:23:5",
                  "stateVariable": false,
                  "storageLocation": "default",
                  "typeDescriptions": {
                    "typeIdentifier": "t_uint256",
                    "typeString": "uint256"
                  },
                  "typeName": {
                    "id": 1079,
                    "name": "uint256",
                    "nodeType": "ElementaryTypeName",
                    "src": "435:7:5",
                    "typeDescriptions": {
                      "typeIdentifier": "t_uint256",
                      "typeString": "uint256"
                    }
                  },
                  "visibility": "internal"
                }
              ],
              "src": "392:67:5"
            },
            "src": "378:82:5"
          },
          {
            "anonymous": false,
            "documentation": {
              "id": 1083,
              "nodeType": "StructuredDocumentation",
              "src": "466:94:5",
              "text": " @dev Emitted when `owner` enables `approved` to manage the `tokenId` token."
            },
            "eventSelector": "8c5be1e5ebec7d5bd14f71427d1e84f3dd0314c0f7b2291e5b200ac8c7c3b925",
            "id": 1091,
            "name": "Approval",
            "nameLocation": "571:8:5",
            "nodeType": "EventDefinition",
            "parameters": {
              "id": 1090,
              "nodeType": "ParameterList",
              "parameters": [
                {
                  "constant": false,
                  "id": 1085,
                  "indexed": true,
                  "mutability": "mutable",
                  "name": "owner",
                  "nameLocation": "596:5:5",
                  "nodeType": "VariableDeclaration",
                  "scope": 1091,
                  "src": "580:21:5",
                  "stateVariable": false,
                  "storageLocation": "default",
                  "typeDescriptions": {
                    "typeIdentifier": "t_address",
                    "typeString": "address"
                  },
                  "typeName": {
                    "id": 1084,
                    "name": "address",
                    "nodeType": "ElementaryTypeName",
                    "src": "580:7:5",
                    "stateMutability": "nonpayable",
                    "typeDescriptions": {
                      "typeIdentifier": "t_address",
                      "typeString": "address"
                    }
                  },
                  "visibility": "internal"
                },
                {
                  "constant": false,
                  "id": 1087,
                  "indexed": true,
                  "mutability": "mutable",
                  "name": "approved",
                  "nameLocation": "619:8:5",
                  "nodeType": "VariableDeclaration",
                  "scope": 1091,
                  "src": "603:24:5",
                  "stateVariable": false,
                  "storageLocation": "default",
                  "typeDescriptions": {
                    "typeIdentifier": "t_address",
                    "typeString": "address"
                  },
                  "typeName": {
                    "id": 1086,
                    "name": "address",
                    "nodeType": "ElementaryTypeName",
                    "src": "603:7:5",
                    "stateMutability": "nonpayable",
                    "typeDescriptions": {
                      "typeIdentifier": "t_address",
                      "typeString": "address"
                    }
                  },
                  "visibility": "internal"
                },
                {
                  "constant": false,
                  "id": 1089,
                  "indexed": true,
                  "mutability": "mutable",
                  "name": "tokenId",
                  "nameLocation": "645:7:5",
                  "nodeType": "VariableDeclaration",
                  "scope": 1091,
                  "src": "629:23:5",
                  "stateVariable": false,
                  "storageLocation": "default",
                  "typeDescriptions": {
                    "typeIdentifier": "t_uint256",
                    "typeString": "uint256"
                  },
                  "typeName": {
                    "id": 1088,
                    "name": "uint256",
                    "nodeType": "ElementaryTypeName",
                    "src": "629:7:5",
                    "typeDescriptions": {
                      "typeIdentifier": "t_uint256",
                      "typeString": "uint256"
                    }
                  },
                  "visibility": "internal"
                }
              ],
              "src": "579:74:5"
            },
            "src": "565:89:5"
          },
          {
            "anonymous": false,
            "documentation": {
              "id": 1092,
              "nodeType": "StructuredDocumentation",
              "src": "660:117:5",
              "text": " @dev Emitted when `owner` enables or disables (`approved`) `operator` to manage all of its assets."
            },
            "eventSelector": "17307eab39ab6107e8899845ad3d59bd9653f200f220920489ca2b5937696c31",
            "id": 1100,
            "name": "ApprovalForAll",
            "nameLocation": "788:14:5",
            "nodeType": "EventDefinition",
            "parameters": {
              "id": 1099,
              "nodeType": "ParameterList",
              "parameters": [
                {
                  "constant": false,
                  "id": 1094,
                  "indexed": true,
                  "mutability": "mutable",
                  "name": "owner",
                  "nameLocation": "819:5:5",
                  "nodeType": "VariableDeclaration",
                  "scope": 1100,
                  "src": "803:21:5",
                  "stateVariable": false,
                  "storageLocation": "default",
                  "typeDescriptions": {
                    "typeIdentifier": "t_address",
                    "typeString": "address"
                  },
                  "typeName": {
                    "id": 1093,
                    "name": "address",
                    "nodeType": "ElementaryTypeName",
                    "src": "803:7:5",
                    "stateMutability": "nonpayable",
                    "typeDescriptions": {
                      "typeIdentifier": "t_address",
                      "typeString": "address"
                    }
                  },
                  "visibility": "internal"
                },
                {
                  "constant": false,
                  "id": 1096,
                  "indexed": true,
                  "mutability": "mutable",
                  "name": "operator",
                  "nameLocation": "842:8:5",
                  "nodeType": "VariableDeclaration",
                  "scope": 1100,
                  "src": "826:24:5",
                  "stateVariable": false,
                  "storageLocation": "default",
                  "typeDescriptions": {
                    "typeIdentifier": "t_address",
                    "typeString": "address"
                  },
                  "typeName": {
                    "id": 1095,
                    "name": "address",
                    "nodeType": "ElementaryTypeName",
                    "src": "826:7:5",
                    "stateMutability": "nonpayable",
                    "typeDescriptions": {
                      "typeIdentifier": "t_address",
                      "typeString": "address"
                    }
                  },
                  "visibility": "internal"
                },
                {
                  "constant": false,
                  "id": 1098,
                  "indexed": false,
                  "mutability": "mutable",
                  "name": "approved",
                  "nameLocation": "857:8:5",
                  "nodeType": "VariableDeclaration",
                  "scope": 1100,
                  "src": "852:13:5",
                  "stateVariable": false,
                  "storageLocation": "default",
                  "typeDescriptions": {
                    "typeIdentifier": "t_bool",
                    "typeString": "bool"
                  },
                  "typeName": {
                    "id": 1097,
                    "name": "bool",
                    "nodeType": "ElementaryTypeName",
                    "src": "852:4:5",
                    "typeDescriptions": {
                      "typeIdentifier": "t_bool",
                      "typeString": "bool"
                    }
                  },
                  "visibility": "internal"
                }
              ],
              "src": "802:64:5"
            },
            "src": "782:85:5"
          },
          {
            "documentation": {
              "id": 1101,
              "nodeType": "StructuredDocumentation",
              "src": "873:76:5",
              "text": " @dev Returns the number of tokens in ``owner``'s account."
            },
            "functionSelector": "70a08231",
            "id": 1108,
            "implemented": false,
            "kind": "function",
            "modifiers": [],
            "name": "balanceOf",
            "nameLocation": "963:9:5",
            "nodeType": "FunctionDefinition",
            "parameters": {
              "id": 1104,
              "nodeType": "ParameterList",
              "parameters": [
                {
                  "constant": false,
                  "id": 1103,
                  "mutability": "mutable",
                  "name": "owner",
                  "nameLocation": "981:5:5",
                  "nodeType": "VariableDeclaration",
                  "scope": 1108,
                  "src": "973:13:5",
                  "stateVariable": false,
                  "storageLocation": "default",
                  "typeDescriptions": {
                    "typeIdentifier": "t_address",
                    "typeString": "address"
                  },
                  "typeName": {
                    "id": 1102,
                    "name": "address",
                    "nodeType": "ElementaryTypeName",
                    "src": "973:7:5",
                    "stateMutability": "nonpayable",
                    "typeDescriptions": {
                      "typeIdentifier": "t_address",
                      "typeString": "address"
                    }
                  },
                  "visibility": "internal"
                }
              ],
              "src": "972:15:5"
            },
            "returnParameters": {
              "id": 1107,
              "nodeType": "ParameterList",
              "parameters": [
                {
                  "constant": false,
                  "id": 1106,
                  "mutability": "mutable",
                  "name": "balance",
                  "nameLocation": "1019:7:5",
                  "nodeType": "VariableDeclaration",
                  "scope": 1108,
                  "src": "1011:15:5",
                  "stateVariable": false,
                  "storageLocation": "default",
                  "typeDescriptions": {
                    "typeIdentifier": "t_uint256",
                    "typeString": "uint256"
                  },
                  "typeName": {
                    "id": 1105,
                    "name": "uint256",
                    "nodeType": "ElementaryTypeName",
                    "src": "1011:7:5",
                    "typeDescriptions": {
                      "typeIdentifier": "t_uint256",
                      "typeString": "uint256"
                    }
                  },
                  "visibility": "internal"
                }
              ],
              "src": "1010:17:5"
            },
            "scope": 1183,
            "src": "954:74:5",
            "stateMutability": "view",
            "virtual": false,
            "visibility": "external"
          },
          {
            "documentation": {
              "id": 1109,
              "nodeType": "StructuredDocumentation",
              "src": "1034:131:5",
              "text": " @dev Returns the owner of the `tokenId` token.\n Requirements:\n - `tokenId` must exist."
            },
            "functionSelector": "6352211e",
            "id": 1116,
            "implemented": false,
            "kind": "function",
            "modifiers": [],
            "name": "ownerOf",
            "nameLocation": "1179:7:5",
            "nodeType": "FunctionDefinition",
            "parameters": {
              "id": 1112,
              "nodeType": "ParameterList",
              "parameters": [
                {
                  "constant": false,
                  "id": 1111,
                  "mutability": "mutable",
                  "name": "tokenId",
                  "nameLocation": "1195:7:5",
                  "nodeType": "VariableDeclaration",
                  "scope": 1116,
                  "src": "1187:15:5",
                  "stateVariable": false,
                  "storageLocation": "default",
                  "typeDescriptions": {
                    "typeIdentifier": "t_uint256",
                    "typeString": "uint256"
                  },
                  "typeName": {
                    "id": 1110,
                    "name": "uint256",
                    "nodeType": "ElementaryTypeName",
                    "src": "1187:7:5",
                    "typeDescriptions": {
                      "typeIdentifier": "t_uint256",
                      "typeString": "uint256"
                    }
                  },
                  "visibility": "internal"
                }
              ],
              "src": "1186:17:5"
            },
            "returnParameters": {
              "id": 1115,
              "nodeType": "ParameterList",
              "parameters": [
                {
                  "constant": false,
                  "id": 1114,
                  "mutability": "mutable",
                  "name": "owner",
                  "nameLocation": "1235:5:5",
                  "nodeType": "VariableDeclaration",
                  "scope": 1116,
                  "src": "1227:13:5",
                  "stateVariable": false,
                  "storageLocation": "default",
                  "typeDescriptions": {
                    "typeIdentifier": "t_address",
                    "typeString": "address"
                  },
                  "typeName": {
                    "id": 1113,
                    "name": "address",
                    "nodeType": "ElementaryTypeName",
                    "src": "1227:7:5",
                    "stateMutability": "nonpayable",
                    "typeDescriptions": {
                      "typeIdentifier": "t_address",
                      "typeString": "address"
                    }
                  },
                  "visibility": "internal"
                }
              ],
              "src": "1226:15:5"
            },
            "scope": 1183,
            "src": "1170:72:5",
            "stateMutability": "view",
            "virtual": false,
            "visibility": "external"
          },
          {
            "documentation": {
              "id": 1117,
              "nodeType": "StructuredDocumentation",
              "src": "1248:556:5",
              "text": " @dev Safely transfers `tokenId` token from `from` to `to`.\n Requirements:\n - `from` cannot be the zero address.\n - `to` cannot be the zero address.\n - `tokenId` token must exist and be owned by `from`.\n - If the caller is not `from`, it must be approved to move this token by either {approve} or {setApprovalForAll}.\n - If `to` refers to a smart contract, it must implement {IERC721Receiver-onERC721Received}, which is called upon a safe transfer.\n Emits a {Transfer} event."
            },
            "functionSelector": "b88d4fde",
            "id": 1128,
            "implemented": false,
            "kind": "function",
            "modifiers": [],
            "name": "safeTransferFrom",
            "nameLocation": "1818:16:5",
            "nodeType": "FunctionDefinition",
            "parameters": {
              "id": 1126,
              "nodeType": "ParameterList",
              "parameters": [
                {
                  "constant": false,
                  "id": 1119,
                  "mutability": "mutable",
                  "name": "from",
                  "nameLocation": "1843:4:5",
                  "nodeType": "VariableDeclaration",
                  "scope": 1128,
                  "src": "1835:12:5",
                  "stateVariable": false,
                  "storageLocation": "default",
                  "typeDescriptions": {
                    "typeIdentifier": "t_address",
                    "typeString": "address"
                  },
                  "typeName": {
                    "id": 1118,
                    "name": "address",
                    "nodeType": "ElementaryTypeName",
                    "src": "1835:7:5",
                    "stateMutability": "nonpayable",
                    "typeDescriptions": {
                      "typeIdentifier": "t_address",
                      "typeString": "address"
                    }
                  },
                  "visibility": "internal"
                },
                {
                  "constant": false,
                  "id": 1121,
                  "mutability": "mutable",
                  "name": "to",
                  "nameLocation": "1857:2:5",
                  "nodeType": "VariableDeclaration",
                  "scope": 1128,
                  "src": "1849:10:5",
                  "stateVariable": false,
                  "storageLocation": "default",
                  "typeDescriptions": {
                    "typeIdentifier": "t_address",
                    "typeString": "address"
                  },
                  "typeName": {
                    "id": 1120,
                    "name": "address",
                    "nodeType": "ElementaryTypeName",
                    "src": "1849:7:5",
                    "stateMutability": "nonpayable",
                    "typeDescriptions": {
                      "typeIdentifier": "t_address",
                      "typeString": "address"
                    }
                  },
                  "visibility": "internal"
                },
                {
                  "constant": false,
                  "id": 1123,
                  "mutability": "mutable",
                  "name": "tokenId",
                  "nameLocation": "1869:7:5",
                  "nodeType": "VariableDeclaration",
                  "scope": 1128,
                  "src": "1861:15:5",
                  "stateVariable": false,
                  "storageLocation": "default",
                  "typeDescriptions": {
                    "typeIdentifier": "t_uint256",
                    "typeString": "uint256"
                  },
                  "typeName": {
                    "id": 1122,
                    "name": "uint256",
                    "nodeType": "ElementaryTypeName",
                    "src": "1861:7:5",
                    "typeDescriptions": {
                      "typeIdentifier": "t_uint256",
                      "typeString": "uint256"
                    }
                  },
                  "visibility": "internal"
                },
                {
                  "constant": false,
                  "id": 1125,
                  "mutability": "mutable",
                  "name": "data",
                  "nameLocation": "1893:4:5",
                  "nodeType": "VariableDeclaration",
                  "scope": 1128,
                  "src": "1878:19:5",
                  "stateVariable": false,
                  "storageLocation": "calldata",
                  "typeDescriptions": {
                    "typeIdentifier": "t_bytes_calldata_ptr",
                    "typeString": "bytes"
                  },
                  "typeName": {
                    "id": 1124,
                    "name": "bytes",
                    "nodeType": "ElementaryTypeName",
                    "src": "1878:5:5",
                    "typeDescriptions": {
                      "typeIdentifier": "t_bytes_storage_ptr",
                      "typeString": "bytes"
                    }
                  },
                  "visibility": "internal"
                }
              ],
              "src": "1834:64:5"
            },
            "returnParameters": {
              "id": 1127,
              "nodeType": "ParameterList",
              "parameters": [],
              "src": "1907:0:5"
            },
            "scope": 1183,
            "src": "1809:99:5",
            "stateMutability": "nonpayable",
            "virtual": false,
            "visibility": "external"
          },
          {
            "documentation": {
              "id": 1129,
              "nodeType": "StructuredDocumentation",
              "src": "1914:687:5",
              "text": " @dev Safely transfers `tokenId` token from `from` to `to`, checking first that contract recipients\n are aware of the ERC721 protocol to prevent tokens from being forever locked.\n Requirements:\n - `from` cannot be the zero address.\n - `to` cannot be the zero address.\n - `tokenId` token must exist and be owned by `from`.\n - If the caller is not `from`, it must have been allowed to move this token by either {approve} or {setApprovalForAll}.\n - If `to` refers to a smart contract, it must implement {IERC721Receiver-onERC721Received}, which is called upon a safe transfer.\n Emits a {Transfer} event."
            },
            "functionSelector": "42842e0e",
            "id": 1138,
            "implemented": false,
            "kind": "function",
            "modifiers": [],
            "name": "safeTransferFrom",
            "nameLocation": "2615:16:5",
            "nodeType": "FunctionDefinition",
            "parameters": {
              "id": 1136,
              "nodeType": "ParameterList",
              "parameters": [
                {
                  "constant": false,
                  "id": 1131,
                  "mutability": "mutable",
                  "name": "from",
                  "nameLocation": "2640:4:5",
                  "nodeType": "VariableDeclaration",
                  "scope": 1138,
                  "src": "2632:12:5",
                  "stateVariable": false,
                  "storageLocation": "default",
                  "typeDescriptions": {
                    "typeIdentifier": "t_address",
                    "typeString": "address"
                  },
                  "typeName": {
                    "id": 1130,
                    "name": "address",
                    "nodeType": "ElementaryTypeName",
                    "src": "2632:7:5",
                    "stateMutability": "nonpayable",
                    "typeDescriptions": {
                      "typeIdentifier": "t_address",
                      "typeString": "address"
                    }
                  },
                  "visibility": "internal"
                },
                {
                  "constant": false,
                  "id": 1133,
                  "mutability": "mutable",
                  "name": "to",
                  "nameLocation": "2654:2:5",
                  "nodeType": "VariableDeclaration",
                  "scope": 1138,
                  "src": "2646:10:5",
                  "stateVariable": false,
                  "storageLocation": "default",
                  "typeDescriptions": {
                    "typeIdentifier": "t_address",
                    "typeString": "address"
                  },
                  "typeName": {
                    "id": 1132,
                    "name": "address",
                    "nodeType": "ElementaryTypeName",
                    "src": "2646:7:5",
                    "stateMutability": "nonpayable",
                    "typeDescriptions": {
                      "typeIdentifier": "t_address",
                      "typeString": "address"
                    }
                  },
                  "visibility": "internal"
                },
                {
                  "constant": false,
                  "id": 1135,
                  "mutability": "mutable",
                  "name": "tokenId",
                  "nameLocation": "2666:7:5",
                  "nodeType": "VariableDeclaration",
                  "scope": 1138,
                  "src": "2658:15:5",
                  "stateVariable": false,
                  "storageLocation": "default",
                  "typeDescriptions": {
                    "typeIdentifier": "t_uint256",
                    "typeString": "uint256"
                  },
                  "typeName": {
                    "id": 1134,
                    "name": "uint256",
                    "nodeType": "ElementaryTypeName",
                    "src": "2658:7:5",
                    "typeDescriptions": {
                      "typeIdentifier": "t_uint256",
                      "typeString": "uint256"
                    }
                  },
                  "visibility": "internal"
                }
              ],
              "src": "2631:43:5"
            },
            "returnParameters": {
              "id": 1137,
              "nodeType": "ParameterList",
              "parameters": [],
              "src": "2683:0:5"
            },
            "scope": 1183,
            "src": "2606:78:5",
            "stateMutability": "nonpayable",
            "virtual": false,
            "visibility": "external"
          },
          {
            "documentation": {
              "id": 1139,
              "nodeType": "StructuredDocumentation",
              "src": "2690:732:5",
              "text": " @dev Transfers `tokenId` token from `from` to `to`.\n WARNING: Note that the caller is responsible to confirm that the recipient is capable of receiving ERC721\n or else they may be permanently lost. Usage of {safeTransferFrom} prevents loss, though the caller must\n understand this adds an external call which potentially creates a reentrancy vulnerability.\n Requirements:\n - `from` cannot be the zero address.\n - `to` cannot be the zero address.\n - `tokenId` token must be owned by `from`.\n - If the caller is not `from`, it must be approved to move this token by either {approve} or {setApprovalForAll}.\n Emits a {Transfer} event."
            },
            "functionSelector": "23b872dd",
            "id": 1148,
            "implemented": false,
            "kind": "function",
            "modifiers": [],
            "name": "transferFrom",
            "nameLocation": "3436:12:5",
            "nodeType": "FunctionDefinition",
            "parameters": {
              "id": 1146,
              "nodeType": "ParameterList",
              "parameters": [
                {
                  "constant": false,
                  "id": 1141,
                  "mutability": "mutable",
                  "name": "from",
                  "nameLocation": "3457:4:5",
                  "nodeType": "VariableDeclaration",
                  "scope": 1148,
                  "src": "3449:12:5",
                  "stateVariable": false,
                  "storageLocation": "default",
                  "typeDescriptions": {
                    "typeIdentifier": "t_address",
                    "typeString": "address"
                  },
                  "typeName": {
                    "id": 1140,
                    "name": "address",
                    "nodeType": "ElementaryTypeName",
                    "src": "3449:7:5",
                    "stateMutability": "nonpayable",
                    "typeDescriptions": {
                      "typeIdentifier": "t_address",
                      "typeString": "address"
                    }
                  },
                  "visibility": "internal"
                },
                {
                  "constant": false,
                  "id": 1143,
                  "mutability": "mutable",
                  "name": "to",
                  "nameLocation": "3471:2:5",
                  "nodeType": "VariableDeclaration",
                  "scope": 1148,
                  "src": "3463:10:5",
                  "stateVariable": false,
                  "storageLocation": "default",
                  "typeDescriptions": {
                    "typeIdentifier": "t_address",
                    "typeString": "address"
                  },
                  "typeName": {
                    "id": 1142,
                    "name": "address",
                    "nodeType": "ElementaryTypeName",
                    "src": "3463:7:5",
                    "stateMutability": "nonpayable",
                    "typeDescriptions": {
                      "typeIdentifier": "t_address",
                      "typeString": "address"
                    }
                  },
                  "visibility": "internal"
                },
                {
                  "constant": false,
                  "id": 1145,
                  "mutability": "mutable",
                  "name": "tokenId",
                  "nameLocation": "3483:7:5",
                  "nodeType": "VariableDeclaration",
                  "scope": 1148,
                  "src": "3475:15:5",
                  "stateVariable": false,
                  "storageLocation": "default",
                  "typeDescriptions": {
                    "typeIdentifier": "t_uint256",
                    "typeString": "uint256"
                  },
                  "typeName": {
                    "id": 1144,
                    "name": "uint256",
                    "nodeType": "ElementaryTypeName",
                    "src": "3475:7:5",
                    "typeDescriptions": {
                      "typeIdentifier": "t_uint256",
                      "typeString": "uint256"
                    }
                  },
                  "visibility": "internal"
                }
              ],
              "src": "3448:43:5"
            },
            "returnParameters": {
              "id": 1147,
              "nodeType": "ParameterList",
              "parameters": [],
              "src": "3500:0:5"
            },
            "scope": 1183,
            "src": "3427:74:5",
            "stateMutability": "nonpayable",
            "virtual": false,
            "visibility": "external"
          },
          {
            "documentation": {
              "id": 1149,
              "nodeType": "StructuredDocumentation",
              "src": "3507:452:5",
              "text": " @dev Gives permission to `to` to transfer `tokenId` token to another account.\n The approval is cleared when the token is transferred.\n Only a single account can be approved at a time, so approving the zero address clears previous approvals.\n Requirements:\n - The caller must own the token or be an approved operator.\n - `tokenId` must exist.\n Emits an {Approval} event."
            },
            "functionSelector": "095ea7b3",
            "id": 1156,
            "implemented": false,
            "kind": "function",
            "modifiers": [],
            "name": "approve",
            "nameLocation": "3973:7:5",
            "nodeType": "FunctionDefinition",
            "parameters": {
              "id": 1154,
              "nodeType": "ParameterList",
              "parameters": [
                {
                  "constant": false,
                  "id": 1151,
                  "mutability": "mutable",
                  "name": "to",
                  "nameLocation": "3989:2:5",
                  "nodeType": "VariableDeclaration",
                  "scope": 1156,
                  "src": "3981:10:5",
                  "stateVariable": false,
                  "storageLocation": "default",
                  "typeDescriptions": {
                    "typeIdentifier": "t_address",
                    "typeString": "address"
                  },
                  "typeName": {
                    "id": 1150,
                    "name": "address",
                    "nodeType": "ElementaryTypeName",
                    "src": "3981:7:5",
                    "stateMutability": "nonpayable",
                    "typeDescriptions": {
                      "typeIdentifier": "t_address",
                      "typeString": "address"
                    }
                  },
                  "visibility": "internal"
                },
                {
                  "constant": false,
                  "id": 1153,
                  "mutability": "mutable",
                  "name": "tokenId",
                  "nameLocation": "4001:7:5",
                  "nodeType": "VariableDeclaration",
                  "scope": 1156,
                  "src": "3993:15:5",
                  "stateVariable": false,
                  "storageLocation": "default",
                  "typeDescriptions": {
                    "typeIdentifier": "t_uint256",
                    "typeString": "uint256"
                  },
                  "typeName": {
                    "id": 1152,
                    "name": "uint256",
                    "nodeType": "ElementaryTypeName",
                    "src": "3993:7:5",
                    "typeDescriptions": {
                      "typeIdentifier": "t_uint256",
                      "typeString": "uint256"
                    }
                  },
                  "visibility": "internal"
                }
              ],
              "src": "3980:29:5"
            },
            "returnParameters": {
              "id": 1155,
              "nodeType": "ParameterList",
              "parameters": [],
              "src": "4018:0:5"
            },
            "scope": 1183,
            "src": "3964:55:5",
            "stateMutability": "nonpayable",
            "virtual": false,
            "visibility": "external"
          },
          {
            "documentation": {
              "id": 1157,
              "nodeType": "StructuredDocumentation",
              "src": "4025:309:5",
              "text": " @dev Approve or remove `operator` as an operator for the caller.\n Operators can call {transferFrom} or {safeTransferFrom} for any token owned by the caller.\n Requirements:\n - The `operator` cannot be the caller.\n Emits an {ApprovalForAll} event."
            },
            "functionSelector": "a22cb465",
            "id": 1164,
            "implemented": false,
            "kind": "function",
            "modifiers": [],
            "name": "setApprovalForAll",
            "nameLocation": "4348:17:5",
            "nodeType": "FunctionDefinition",
            "parameters": {
              "id": 1162,
              "nodeType": "ParameterList",
              "parameters": [
                {
                  "constant": false,
                  "id": 1159,
                  "mutability": "mutable",
                  "name": "operator",
                  "nameLocation": "4374:8:5",
                  "nodeType": "VariableDeclaration",
                  "scope": 1164,
                  "src": "4366:16:5",
                  "stateVariable": false,
                  "storageLocation": "default",
                  "typeDescriptions": {
                    "typeIdentifier": "t_address",
                    "typeString": "address"
                  },
                  "typeName": {
                    "id": 1158,
                    "name": "address",
                    "nodeType": "ElementaryTypeName",
                    "src": "4366:7:5",
                    "stateMutability": "nonpayable",
                    "typeDescriptions": {
                      "typeIdentifier": "t_address",
                      "typeString": "address"
                    }
                  },
                  "visibility": "internal"
                },
                {
                  "constant": false,
                  "id": 1161,
                  "mutability": "mutable",
                  "name": "approved",
                  "nameLocation": "4389:8:5",
                  "nodeType": "VariableDeclaration",
                  "scope": 1164,
                  "src": "4384:13:5",
                  "stateVariable": false,
                  "storageLocation": "default",
                  "typeDescriptions": {
                    "typeIdentifier": "t_bool",
                    "typeString": "bool"
                  },
                  "typeName": {
                    "id": 1160,
                    "name": "bool",
                    "nodeType": "ElementaryTypeName",
                    "src": "4384:4:5",
                    "typeDescriptions": {
                      "typeIdentifier": "t_bool",
                      "typeString": "bool"
                    }
                  },
                  "visibility": "internal"
                }
              ],
              "src": "4365:33:5"
            },
            "returnParameters": {
              "id": 1163,
              "nodeType": "ParameterList",
              "parameters": [],
              "src": "4407:0:5"
            },
            "scope": 1183,
            "src": "4339:69:5",
            "stateMutability": "nonpayable",
            "virtual": false,
            "visibility": "external"
          },
          {
            "documentation": {
              "id": 1165,
              "nodeType": "StructuredDocumentation",
              "src": "4414:139:5",
              "text": " @dev Returns the account approved for `tokenId` token.\n Requirements:\n - `tokenId` must exist."
            },
            "functionSelector": "081812fc",
            "id": 1172,
            "implemented": false,
            "kind": "function",
            "modifiers": [],
            "name": "getApproved",
            "nameLocation": "4567:11:5",
            "nodeType": "FunctionDefinition",
            "parameters": {
              "id": 1168,
              "nodeType": "ParameterList",
              "parameters": [
                {
                  "constant": false,
                  "id": 1167,
                  "mutability": "mutable",
                  "name": "tokenId",
                  "nameLocation": "4587:7:5",
                  "nodeType": "VariableDeclaration",
                  "scope": 1172,
                  "src": "4579:15:5",
                  "stateVariable": false,
                  "storageLocation": "default",
                  "typeDescriptions": {
                    "typeIdentifier": "t_uint256",
                    "typeString": "uint256"
                  },
                  "typeName": {
                    "id": 1166,
                    "name": "uint256",
                    "nodeType": "ElementaryTypeName",
                    "src": "4579:7:5",
                    "typeDescriptions": {
                      "typeIdentifier": "t_uint256",
                      "typeString": "uint256"
                    }
                  },
                  "visibility": "internal"
                }
              ],
              "src": "4578:17:5"
            },
            "returnParameters": {
              "id": 1171,
              "nodeType": "ParameterList",
              "parameters": [
                {
                  "constant": false,
                  "id": 1170,
                  "mutability": "mutable",
                  "name": "operator",
                  "nameLocation": "4627:8:5",
                  "nodeType": "VariableDeclaration",
                  "scope": 1172,
                  "src": "4619:16:5",
                  "stateVariable": false,
                  "storageLocation": "default",
                  "typeDescriptions": {
                    "typeIdentifier": "t_address",
                    "typeString": "address"
                  },
                  "typeName": {
                    "id": 1169,
                    "name": "address",
                    "nodeType": "ElementaryTypeName",
                    "src": "4619:7:5",
                    "stateMutability": "nonpayable",
                    "typeDescriptions": {
                      "typeIdentifier": "t_address",
                      "typeString": "address"
                    }
                  },
                  "visibility": "internal"
                }
              ],
              "src": "4618:18:5"
            },
            "scope": 1183,
            "src": "4558:79:5",
            "stateMutability": "view",
            "virtual": false,
            "visibility": "external"
          },
          {
            "documentation": {
              "id": 1173,
              "nodeType": "StructuredDocumentation",
              "src": "4643:138:5",
              "text": " @dev Returns if the `operator` is allowed to manage all of the assets of `owner`.\n See {setApprovalForAll}"
            },
            "functionSelector": "e985e9c5",
            "id": 1182,
            "implemented": false,
            "kind": "function",
            "modifiers": [],
            "name": "isApprovedForAll",
            "nameLocation": "4795:16:5",
            "nodeType": "FunctionDefinition",
            "parameters": {
              "id": 1178,
              "nodeType": "ParameterList",
              "parameters": [
                {
                  "constant": false,
                  "id": 1175,
                  "mutability": "mutable",
                  "name": "owner",
                  "nameLocation": "4820:5:5",
                  "nodeType": "VariableDeclaration",
                  "scope": 1182,
                  "src": "4812:13:5",
                  "stateVariable": false,
                  "storageLocation": "default",
                  "typeDescriptions": {
                    "typeIdentifier": "t_address",
                    "typeString": "address"
                  },
                  "typeName": {
                    "id": 1174,
                    "name": "address",
                    "nodeType": "ElementaryTypeName",
                    "src": "4812:7:5",
                    "stateMutability": "nonpayable",
                    "typeDescriptions": {
                      "typeIdentifier": "t_address",
                      "typeString": "address"
                    }
                  },
                  "visibility": "internal"
                },
                {
                  "constant": false,
                  "id": 1177,
                  "mutability": "mutable",
                  "name": "operator",
                  "nameLocation": "4835:8:5",
                  "nodeType": "VariableDeclaration",
                  "scope": 1182,
                  "src": "4827:16:5",
                  "stateVariable": false,
                  "storageLocation": "default",
                  "typeDescriptions": {
                    "typeIdentifier": "t_address",
                    "typeString": "address"
                  },
                  "typeName": {
                    "id": 1176,
                    "name": "address",
                    "nodeType": "ElementaryTypeName",
                    "src": "4827:7:5",
                    "stateMutability": "nonpayable",
                    "typeDescriptions": {
                      "typeIdentifier": "t_address",
                      "typeString": "address"
                    }
                  },
                  "visibility": "internal"
                }
              ],
              "src": "4811:33:5"
            },
            "returnParameters": {
              "id": 1181,
              "nodeType": "ParameterList",
              "parameters": [
                {
                  "constant": false,
                  "id": 1180,
                  "mutability": "mutable",
                  "name": "",
                  "nameLocation": "-1:-1:-1",
                  "nodeType": "VariableDeclaration",
                  "scope": 1182,
                  "src": "4868:4:5",
                  "stateVariable": false,
                  "storageLocation": "default",
                  "typeDescriptions": {
                    "typeIdentifier": "t_bool",
                    "typeString": "bool"
                  },
                  "typeName": {
                    "id": 1179,
                    "name": "bool",
                    "nodeType": "ElementaryTypeName",
                    "src": "4868:4:5",
                    "typeDescriptions": {
                      "typeIdentifier": "t_bool",
                      "typeString": "bool"
                    }
                  },
                  "visibility": "internal"
                }
              ],
              "src": "4867:6:5"
            },
            "scope": 1183,
            "src": "4786:88:5",
            "stateMutability": "view",
            "virtual": false,
            "visibility": "external"
          }
        ],
        "scope": 1184,
        "src": "250:4626:5",
        "usedErrors": []
      }
    ],
    "src": "108:4769:5"
  },
  "compiler": {
    "name": "solc",
    "version": "0.8.13+commit.abaa5c0e.Emscripten.clang"
  },
  "networks": {},
  "schemaVersion": "3.4.16",
  "updatedAt": "2024-02-28T16:20:53.337Z",
  "devdoc": {
    "details": "Required interface of an ERC721 compliant contract.",
    "events": {
      "Approval(address,address,uint256)": {
        "details": "Emitted when `owner` enables `approved` to manage the `tokenId` token."
      },
      "ApprovalForAll(address,address,bool)": {
        "details": "Emitted when `owner` enables or disables (`approved`) `operator` to manage all of its assets."
      },
      "Transfer(address,address,uint256)": {
        "details": "Emitted when `tokenId` token is transferred from `from` to `to`."
      }
    },
    "kind": "dev",
    "methods": {
      "approve(address,uint256)": {
        "details": "Gives permission to `to` to transfer `tokenId` token to another account. The approval is cleared when the token is transferred. Only a single account can be approved at a time, so approving the zero address clears previous approvals. Requirements: - The caller must own the token or be an approved operator. - `tokenId` must exist. Emits an {Approval} event."
      },
      "balanceOf(address)": {
        "details": "Returns the number of tokens in ``owner``'s account."
      },
      "getApproved(uint256)": {
        "details": "Returns the account approved for `tokenId` token. Requirements: - `tokenId` must exist."
      },
      "isApprovedForAll(address,address)": {
        "details": "Returns if the `operator` is allowed to manage all of the assets of `owner`. See {setApprovalForAll}"
      },
      "ownerOf(uint256)": {
        "details": "Returns the owner of the `tokenId` token. Requirements: - `tokenId` must exist."
      },
      "safeTransferFrom(address,address,uint256)": {
        "details": "Safely transfers `tokenId` token from `from` to `to`, checking first that contract recipients are aware of the ERC721 protocol to prevent tokens from being forever locked. Requirements: - `from` cannot be the zero address. - `to` cannot be the zero address. - `tokenId` token must exist and be owned by `from`. - If the caller is not `from`, it must have been allowed to move this token by either {approve} or {setApprovalForAll}. - If `to` refers to a smart contract, it must implement {IERC721Receiver-onERC721Received}, which is called upon a safe transfer. Emits a {Transfer} event."
      },
      "safeTransferFrom(address,address,uint256,bytes)": {
        "details": "Safely transfers `tokenId` token from `from` to `to`. Requirements: - `from` cannot be the zero address. - `to` cannot be the zero address. - `tokenId` token must exist and be owned by `from`. - If the caller is not `from`, it must be approved to move this token by either {approve} or {setApprovalForAll}. - If `to` refers to a smart contract, it must implement {IERC721Receiver-onERC721Received}, which is called upon a safe transfer. Emits a {Transfer} event."
      },
      "setApprovalForAll(address,bool)": {
        "details": "Approve or remove `operator` as an operator for the caller. Operators can call {transferFrom} or {safeTransferFrom} for any token owned by the caller. Requirements: - The `operator` cannot be the caller. Emits an {ApprovalForAll} event."
      },
      "supportsInterface(bytes4)": {
        "details": "Returns true if this contract implements the interface defined by `interfaceId`. See the corresponding https://eips.ethereum.org/EIPS/eip-165#how-interfaces-are-identified[EIP section] to learn more about how these ids are created. This function call must use less than 30 000 gas."
      },
      "transferFrom(address,address,uint256)": {
        "details": "Transfers `tokenId` token from `from` to `to`. WARNING: Note that the caller is responsible to confirm that the recipient is capable of receiving ERC721 or else they may be permanently lost. Usage of {safeTransferFrom} prevents loss, though the caller must understand this adds an external call which potentially creates a reentrancy vulnerability. Requirements: - `from` cannot be the zero address. - `to` cannot be the zero address. - `tokenId` token must be owned by `from`. - If the caller is not `from`, it must be approved to move this token by either {approve} or {setApprovalForAll}. Emits a {Transfer} event."
      }
    },
    "version": 1
  },
  "userdoc": {
    "kind": "user",
    "methods": {},
    "version": 1
  }
}